stm32f1xx_hal_msp.c:64:6:HAL_MspInit	24	static
stm32f1xx_hal_msp.c:90:6:HAL_SPI_MspInit	40	static
stm32f1xx_hal_msp.c:130:6:HAL_SPI_MspDeInit	16	static
stm32f1xx_hal_msp.c:160:6:HAL_USART_MspInit	40	static
stm32f1xx_hal_msp.c:200:6:HAL_USART_MspDeInit	16	static
